{
  "name": "wiremapper",
  "buildsystem": "meson",
  "sources": [
    {
      "type": "git",
      "url": "https://gitlab.com/MartijnBraam/wiremapper.git",
      "tag": "",
      "commit": ""
    }
  ]
}